…
-----

## Question 1: What specialties do we have?

We can use `count()` from `dplyr` to figure out how many different
catagories do we have? Are these catagories related? overlapping? evenly
distributed?

``` r
mt_samples %>%
  count(medical_specialty, sort = TRUE)
```

    ## # A tibble: 40 x 2
    ##    medical_specialty                 n
    ##    <chr>                         <int>
    ##  1 Surgery                        1103
    ##  2 Consult - History and Phy.      516
    ##  3 Cardiovascular / Pulmonary      372
    ##  4 Orthopedic                      355
    ##  5 Radiology                       273
    ##  6 General Medicine                259
    ##  7 Gastroenterology                230
    ##  8 Neurology                       223
    ##  9 SOAP / Chart / Progress Notes   166
    ## 10 Obstetrics / Gynecology         160
    ## # ... with 30 more rows
…
``` r
library(tidyr)
mt_bigrams <- mt_samples %>%
  unnest_ngrams(output=token, input=transcription,n=2)%>%
  separate (col = token, into = c("word1", "word2"),sep = " ")%>%
  select(word1, word2)

mt_bigrams%>%
  filter(word1 == "blood")%>%
  count(word2, sort =T)
```

    ## # A tibble: 161 x 2
    ##    word2        n
    ##    <chr>    <int>
    ##  1 pressure  1265
    ##  2 loss       965
    ##  3 cell       130
    ##  4 in         114
    ##  5 cells      112
    ##  6 sugar       91
    ##  7 and         84
    ##  8 sugars      79
    ##  9 was         65
    ## 10 cultures    53
    ## # ... with 151 more rows

``` r
mt_bigrams%>%
  filter(word2 == "blood")%>%
  count(word1, sort =T)
```

    ## # A tibble: 439 x 2
    ##    word1         n
    ##    <chr>     <int>
    ##  1 estimated   754
    ##  2 white       180
    ##  3 signs       170
    ##  4 and         154
    ##  5 of          149
    ##  6 red         123
    ##  7 her         116
    ##  8 his          99
    ##  9 the          96
    ## 10 no           72
    ## # ... with 429 more rows

``` r
mt_bigrams%>%
  count(word1, word2, sort=T)
```

    ## # A tibble: 301,399 x 3
    ##    word1   word2       n
    ##    <chr>   <chr>   <int>
    ##  1 the     patient 20301
    ##  2 of      the     19050
    ##  3 in      the     12784
    ##  4 to      the     12372
    ##  5 was     then     6952
    ##  6 and     the      6346
    ##  7 patient was      6291
    ##  8 the     right    5509
    ##  9 on      the      5241
    ## 10 the     left     4858
    ## # ... with 301,389 more rows

``` r
mt_bigrams%>%
  anti_join(
    tidytext::stop_words%>% select(word), by =c("word1" = "word")
  ) %>%
  anti_join(
    tidytext::stop_words%>% select(word), by =c("word2" = "word")
  ) %>%
  count(word1, word2, sort=T)
```

    ## # A tibble: 128,013 x 3
    ##    word1         word2           n
    ##    <chr>         <chr>       <int>
    ##  1 0             vicryl       1802
    ##  2 blood         pressure     1265
    ##  3 medical       history      1223
    ##  4 diagnoses     1            1192
    ##  5 preoperative  diagnosis    1176
    ##  6 physical      examination  1156
    ##  7 4             0            1123
    ##  8 vital         signs        1117
    ##  9 past          medical      1113
    ## 10 postoperative diagnosis    1092
    ## # ... with 128,003 more rows
…
Which words are most used in each of the specialties. you can use
`group_by()` and `top_n()` from `dplyr` to have the calculations be done
within each specialty. Remember to remove stopwords. How about the most
5 used words?

``` r
mt_samples %>%
  unnest_tokens(token, transcription)%>%
  anti_join(tidytext::stop_words, by =c("token"="word"))%>%
  group_by(medical_specialty)%>%
  count(token)%>%
  top_n(5,n)
```

    ## # A tibble: 209 x 3
    ## # Groups:   medical_specialty [40]
    ##    medical_specialty    token         n
    ##    <chr>                <chr>     <int>
    ##  1 Allergy / Immunology allergies    21
    ##  2 Allergy / Immunology history      38
    ##  3 Allergy / Immunology nasal        13
    ##  4 Allergy / Immunology noted        23
    ##  5 Allergy / Immunology past         13
    ##  6 Allergy / Immunology patient      22
    ##  7 Autopsy              1            66
    ##  8 Autopsy              anterior     47
    ##  9 Autopsy              inch         59
    ## 10 Autopsy              left         83
    ## # ... with 199 more rows
…
